hotel_name,url,locality,reviews,tripadvisor_rating,checkIn,checkOut,price_per_night,booking_provider,no_of_deals,review_count,hotel_features
La Residencia Hoi An Boutique Hotel,http://www.tripadvisor.com/Hotel_Review-g298082-d7379325-Reviews-La_Residencia_Hoi_An_Boutique_Hotel-Hoi_An_Quang_Nam_Province.html,hoi_an,1405 ,5,2018/10/01,2018/10/02,$60,Agoda.com,5,1405,"Free Wifi,Free Parking,Hotel website"
Lantana Riverside Hoi An Boutique Hotel & Spa,http://www.tripadvisor.com/Hotel_Review-g298082-d12275911-Reviews-Lantana_Riverside_Hoi_An_Boutique_Hotel_Spa-Hoi_An_Quang_Nam_Province.html,hoi_an,642 ,5,2018/10/01,2018/10/02,$47,Agoda.com,0,642,"Free Wifi,Free Parking,Hotel website"
La Siesta Hoi An Resort & Spa,http://www.tripadvisor.com/Hotel_Review-g298082-d12250031-Reviews-La_Siesta_Hoi_An_Resort_Spa-Hoi_An_Quang_Nam_Province.html,hoi_an,1340 ,5,2018/10/01,2018/10/02,$88,Hotels.com,0,1340,"Free Wifi,Free Parking,Hotel website"
Hoi An Holiday Villa,http://www.tripadvisor.com/Hotel_Review-g298082-d8121524-Reviews-Hoi_An_Holiday_Villa-Hoi_An_Quang_Nam_Province.html,hoi_an,881 ,5,2018/10/01,2018/10/02,$19,Booking.com,0,881,"Free Wifi,Breakfast included"
Allegro Hoi An,http://www.tripadvisor.com/Hotel_Review-g298082-d13378296-Reviews-Allegro_Hoi_An-Hoi_An_Quang_Nam_Province.html,hoi_an,580 ,5,2018/10/01,2018/10/02,$92,Agoda.com,0,580,"Free Wifi,Free Parking"
Little Riverside Hoi An,http://www.tripadvisor.com/Hotel_Review-g298082-d14016228-Reviews-Little_Riverside_Hoi_An-Hoi_An_Quang_Nam_Province.html,hoi_an,125 ,5,2018/10/01,2018/10/02,$93,Agoda.com,0,125,"Free Wifi,Pool"
La Residencia Hoi An Boutique Hotel,http://www.tripadvisor.com/Hotel_Review-g298082-d7379325-Reviews-La_Residencia_Hoi_An_Boutique_Hotel-Hoi_An_Quang_Nam_Province.html,hoi_an,1405 ,5,2018/10/01,2018/10/02,$60,Agoda.com,5,1405,"Free Wifi,Free Parking,Hotel website"
Lantana Boutique Hotel Hoi An,http://www.tripadvisor.com/Hotel_Review-g298082-d7810120-Reviews-Lantana_Boutique_Hotel_Hoi_An-Hoi_An_Quang_Nam_Province.html,hoi_an,1593 ,5,2018/10/01,2018/10/02,$89,Agoda.com,6,1593,"Free Wifi,Free Parking,Hotel website"
Jade Hotel Hoi An,http://www.tripadvisor.com/Hotel_Review-g298082-d11716192-Reviews-Jade_Hotel_Hoi_An-Hoi_An_Quang_Nam_Province.html,hoi_an,501 ,5,2018/10/01,2018/10/02,$17,Booking.com,0,501,"Free Wifi,Free Parking"
Aira Boutique Hoi An Hotel & Spa,http://www.tripadvisor.com/Hotel_Review-g298082-d12536756-Reviews-Aira_Boutique_Hoi_An_Hotel_Spa-Hoi_An_Quang_Nam_Province.html,hoi_an,217 ,5,2018/10/01,2018/10/02,$77,Hotels.com,0,217,"Free Wifi,Breakfast included"
Hoi An Rosemary Boutique Hotel,http://www.tripadvisor.com/Hotel_Review-g298082-d13386217-Reviews-Hoi_An_Rosemary_Boutique_Hotel-Hoi_An_Quang_Nam_Province.html,hoi_an,101 ,5,2018/10/01,2018/10/02,$41,Agoda.com,0,101,"Free Wifi,Free Parking"
Pham Gia Boutique Villa,http://www.tripadvisor.com/Hotel_Review-g298082-d7915166-Reviews-Pham_Gia_Boutique_Villa-Hoi_An_Quang_Nam_Province.html,hoi_an,852 ,5,2018/10/01,2018/10/02,$22,Booking.com,0,852,"Free Wifi,Breakfast included"
Hoi An Sincerity Hotel & Spa,http://www.tripadvisor.com/Hotel_Review-g298082-d8595053-Reviews-Hoi_An_Sincerity_Hotel_Spa-Hoi_An_Quang_Nam_Province.html,hoi_an,2146 ,5,2018/10/01,2018/10/02,$30,Booking.com,5,2146,"Free Wifi,Free Parking"
Little Hoi An Beach Boutique Hotel & Spa,http://www.tripadvisor.com/Hotel_Review-g298082-d12213991-Reviews-Little_Hoi_An_Beach_Boutique_Hotel_Spa-Hoi_An_Quang_Nam_Province.html,hoi_an,711 ,5,2018/10/01,2018/10/02,,TripAdvisor,0,711,"Free Wifi,Free Parking"
Hoi An Central Boutique Hotel & Spa,http://www.tripadvisor.com/Hotel_Review-g298082-d11094406-Reviews-Hoi_An_Central_Boutique_Hotel_Spa-Hoi_An_Quang_Nam_Province.html,hoi_an,1139 ,5,2018/10/01,2018/10/02,$61,HotelQuickly,5,1139,"Free Wifi,Free Parking"
Cozy Hoi An Boutique Villas,http://www.tripadvisor.com/Hotel_Review-g298082-d8773680-Reviews-Cozy_Hoi_An_Boutique_Villas-Hoi_An_Quang_Nam_Province.html,hoi_an,736 ,5,2018/10/01,2018/10/02,$39,Agoda.com,0,736,"Free Wifi,Breakfast included"
Christina's Hoi An,http://www.tripadvisor.com/Hotel_Review-g298082-d8115666-Reviews-Christina_s_Hoi_An-Hoi_An_Quang_Nam_Province.html,hoi_an,299 ,5,2018/10/01,2018/10/02,,,0,299,"Free Wifi,Free Parking"
Green Apple Hotel,http://www.tripadvisor.com/Hotel_Review-g298082-d10421817-Reviews-Green_Apple_Hotel-Hoi_An_Quang_Nam_Province.html,hoi_an,607 ,5,2018/10/01,2018/10/02,$20,Agoda.com,0,607,"Free Wifi,Free Parking"
Hoi An River Town Hotel,http://www.tripadvisor.com/Hotel_Review-g298082-d10311875-Reviews-Hoi_An_River_Town_Hotel-Hoi_An_Quang_Nam_Province.html,hoi_an,1064 ,5,2018/10/01,2018/10/02,$102,Hotels.com,6,1064,"Free Wifi,Free Parking"
Pearl River Hoi An Hotel,http://www.tripadvisor.com/Hotel_Review-g298082-d11795056-Reviews-Pearl_River_Hoi_An_Hotel-Hoi_An_Quang_Nam_Province.html,hoi_an,79 ,5,2018/10/01,2018/10/02,$69,HotelQuickly,5,79,"Free Wifi,Free Parking"
Essence Hoi An Hotel & Spa,http://www.tripadvisor.com/Hotel_Review-g298082-d4339781-Reviews-Essence_Hoi_An_Hotel_Spa-Hoi_An_Quang_Nam_Province.html,hoi_an,2976 ,5,2018/10/01,2018/10/02,,,0,2976,"Free Wifi,Free Parking"
Ruby Hotel Hoi An,http://www.tripadvisor.com/Hotel_Review-g298082-d11878813-Reviews-Ruby_Hotel_Hoi_An-Hoi_An_Quang_Nam_Province.html,hoi_an,179 ,5,2018/10/01,2018/10/02,$33,Booking.com,0,179,"Free Wifi,Free Parking,Hotel website"
Hoi An Chic Hotel,http://www.tripadvisor.com/Hotel_Review-g298082-d3531384-Reviews-Hoi_An_Chic_Hotel-Hoi_An_Quang_Nam_Province.html,hoi_an,1166 ,5,2018/10/01,2018/10/02,$62,Agoda.com,0,1166,"Free Wifi,Breakfast included,Hotel website"
Senvila Boutique Resort,http://www.tripadvisor.com/Hotel_Review-g298082-d11868009-Reviews-Senvila_Boutique_Resort-Hoi_An_Quang_Nam_Province.html,hoi_an,264 ,5,2018/10/01,2018/10/02,$40,Agoda.com,0,264,"Free Wifi,Free Parking"
Le Pavillon Hoi An Luxury Resort & Spa,http://www.tripadvisor.com/Hotel_Review-g298082-d12646421-Reviews-Le_Pavillon_Hoi_An_Luxury_Resort_Spa-Hoi_An_Quang_Nam_Province.html,hoi_an,325 ,5,2018/10/01,2018/10/02,$45,Agoda.com,0,325,"Free Wifi,Free Parking,Hotel website"
Venus Hotel & Spa,http://www.tripadvisor.com/Hotel_Review-g298082-d10432881-Reviews-Venus_Hotel_Spa-Hoi_An_Quang_Nam_Province.html,hoi_an,779 ,5,2018/10/01,2018/10/02,$29,Booking.com,0,779,"Free Wifi,Free Parking"
Riverside Oasis Villa,http://www.tripadvisor.com/Hotel_Review-g298082-d7372437-Reviews-Riverside_Oasis_Villa-Hoi_An_Quang_Nam_Province.html,hoi_an,779 ,5,2018/10/01,2018/10/02,$22,Booking.com,0,779,"Free Wifi,Free Parking"
River Suites Hoi An,http://www.tripadvisor.com/Hotel_Review-g298082-d8006908-Reviews-River_Suites_Hoi_An-Hoi_An_Quang_Nam_Province.html,hoi_an,1183 ,5,2018/10/01,2018/10/02,$37,Agoda.com,5,1183,"Free Wifi,Free Parking,Hotel website"
Hoi An Rose Garden Hotel,http://www.tripadvisor.com/Hotel_Review-g298082-d12056362-Reviews-Hoi_An_Rose_Garden_Hotel-Hoi_An_Quang_Nam_Province.html,hoi_an,467 ,5,2018/10/01,2018/10/02,$21,Agoda.com,0,467,"Free Wifi,Free Parking"
Village Lodge,http://www.tripadvisor.com/Hotel_Review-g298082-d14027125-Reviews-Village_Lodge-Hoi_An_Quang_Nam_Province.html,hoi_an,66 ,5,2018/10/01,2018/10/02,$37,Agoda.com,0,66,"Free Wifi,Free Parking"
La Residencia Hoi An Boutique Hotel,http://www.tripadvisor.com/Hotel_Review-g298082-d7379325-Reviews-La_Residencia_Hoi_An_Boutique_Hotel-Hoi_An_Quang_Nam_Province.html,hoi_an,1405 ,5,2018/10/01,2018/10/02,$60,Agoda.com,5,1405,"Free Wifi,Free Parking"
Lavini Hoian Boutique Villa,http://www.tripadvisor.com/Hotel_Review-g298082-d12238944-Reviews-Lavini_Hoian_Boutique_Villa-Hoi_An_Quang_Nam_Province.html,hoi_an,133 ,5,2018/10/01,2018/10/02,$24,Booking.com,0,133,"Free Wifi,Free Parking"
